{
  "raters": {
    "teacherRoomBinding": {
      "rank": 0
    },
    "lessonsBatchSize": {
      "rank": 0
    },
    "lessonsSeq": {
      "rank": 1
    },
    "teacherFreeDays": {
      "rank": 1
    },
    "dayLen": {
      "rank": 1
    },
    "teacherImmovability": {
      "rank": 2
    }
  },
  "days": 5,
  "lessonsPerDay": 10
}