Тихонова С.Ю.,206
Балашов Р.А.,309
Волковская С.Б.,207
Романовская Е.Г.,310
Пивень О.В.,408
Орлова Н.А.,203
Луданина И.В.,401
Быковская М.В.,412
Германович Е.А.,109
Нерсесян В.А.,201
Самарина Т.Н.,409
Фадеева Т.В.,300
Кириллова С.С.,303
Зайцева Г.И.,307
Малич С.А.,304
Кондратенко К.В.,404
Куркина С.В.,403
Мошкин И.Е.,404
Комарова И.Ю.,301
Кабанова Е.В.,301
Саламаха О.Ф.,301
Носова Е.В.,411
Калинина О.Н.,402
Беляева В.В.,410
Гасюк И.С.,301
Шубина И.И.,410
Бурдукова Н.А.,408
Нечипуренко А.В.,сп/з
Новокрещёнов В.П.,сп/з
Штойко С.В.,сп/з
Чепракова Е.А.,410